^E:\GAME_PROJECTS\VS 2013\LIBRARIES\CMAKE\GLEW-1.13.0\BUILDS\GLEWMX.DIR\DEBUG\GLEW.OBJ
E:\GAME_PROJECTS\VS 2013\LIBRARIES\CMAKE\GLEW-1.13.0\BUILDS\BIN\DEBUG\GLEW32MXD.ILK
E:\GAME_PROJECTS\VS 2013\LIBRARIES\CMAKE\GLEW-1.13.0\BUILDS\BIN\DEBUG\GLEW32MXD.DLL
E:\GAME_PROJECTS\VS 2013\LIBRARIES\CMAKE\GLEW-1.13.0\BUILDS\BIN\DEBUG\GLEW32MXD.PDB
