^E:\GAME_PROJECTS\VS 2013\LIBRARIES\CMAKE\GLEW-1.13.0\BUILDS\CMAKEFILES\3.4.0-RC1\COMPILERIDC\CMAKECCOMPILERID.C
C:\PROGRAM FILES (X86)\MICROSOFT VISUAL STUDIO 12.0\VC\BIN\X86_AMD64\1033\CLUI.DLL
C:\WINDOWS\GLOBALIZATION\SORTING\SORTDEFAULT.NLS
C:\WINDOWS\SYSTEM32\RSAENH.DLL
C:\WINDOWS\SYSTEM32\TZRES.DLL
