^E:\GAME_PROJECTS\VS 2013\LIBRARIES\GLM\BUILD\CMAKEFILES\4569DABF8C221CEA383901953770F6F0\GENERATE.STAMP.RULE
E:\GAME_PROJECTS\VS 2013\LIBRARIES\GLM\BUILD\CMAKEFILES\GENERATE.STAMP
E:\GAME_PROJECTS\VS 2013\LIBRARIES\GLM\BUILD\GLM\CMAKEFILES\GENERATE.STAMP
E:\GAME_PROJECTS\VS 2013\LIBRARIES\GLM\BUILD\TEST\CMAKEFILES\GENERATE.STAMP
E:\GAME_PROJECTS\VS 2013\LIBRARIES\GLM\BUILD\TEST\BUG\CMAKEFILES\GENERATE.STAMP
E:\GAME_PROJECTS\VS 2013\LIBRARIES\GLM\BUILD\TEST\CORE\CMAKEFILES\GENERATE.STAMP
E:\GAME_PROJECTS\VS 2013\LIBRARIES\GLM\BUILD\TEST\GTC\CMAKEFILES\GENERATE.STAMP
E:\GAME_PROJECTS\VS 2013\LIBRARIES\GLM\BUILD\TEST\GTX\CMAKEFILES\GENERATE.STAMP
