^E:\GAME_PROJECTS\VS 2013\LIBRARIES\CMAKE\GLFW-3.2\BUILDS\CMAKEFILES\8D2CF58DC42F50B3039784177C3517B5\GENERATE.STAMP.RULE
E:\GAME_PROJECTS\VS 2013\LIBRARIES\CMAKE\GLFW-3.2\BUILDS\CMAKEFILES\GENERATE.STAMP
E:\GAME_PROJECTS\VS 2013\LIBRARIES\CMAKE\GLFW-3.2\BUILDS\SRC\CMAKEFILES\GENERATE.STAMP
E:\GAME_PROJECTS\VS 2013\LIBRARIES\CMAKE\GLFW-3.2\BUILDS\EXAMPLES\CMAKEFILES\GENERATE.STAMP
E:\GAME_PROJECTS\VS 2013\LIBRARIES\CMAKE\GLFW-3.2\BUILDS\TESTS\CMAKEFILES\GENERATE.STAMP
