^E:\GAME_PROJECTS\VS 2013\LIBRARIES\CMAKE\GLFW-3.2\EXAMPLES\HEIGHTMAP.C
/c /I"E:\Game_Projects\VS 2013\libraries\cmake\glfw-3.2\deps" /I"E:\Game_Projects\VS 2013\libraries\cmake\glfw-3.2\include" /Zi /nologo /W3 /WX- /Od /Ob0 /D WIN32 /D _WINDOWS /D _DEBUG /D _CRT_SECURE_NO_WARNINGS /D "CMAKE_INTDIR=\"Debug\"" /D _MBCS /Gm- /RTC1 /MDd /GS /fp:precise /Zc:wchar_t /Zc:forScope /Fo"HEIGHTMAP.DIR\DEBUG\\" /Fd"HEIGHTMAP.DIR\DEBUG\VC120.PDB" /Gd /TC E:\GAME_PROJECTS\VS 2013\LIBRARIES\CMAKE\GLFW-3.2\EXAMPLES\HEIGHTMAP.C
^E:\GAME_PROJECTS\VS 2013\LIBRARIES\CMAKE\GLFW-3.2\DEPS\GLAD.C
/c /I"E:\Game_Projects\VS 2013\libraries\cmake\glfw-3.2\deps" /I"E:\Game_Projects\VS 2013\libraries\cmake\glfw-3.2\include" /Zi /nologo /W3 /WX- /Od /Ob0 /D WIN32 /D _WINDOWS /D _DEBUG /D _CRT_SECURE_NO_WARNINGS /D "CMAKE_INTDIR=\"Debug\"" /D _MBCS /Gm- /RTC1 /MDd /GS /fp:precise /Zc:wchar_t /Zc:forScope /Fo"HEIGHTMAP.DIR\DEBUG\\" /Fd"HEIGHTMAP.DIR\DEBUG\VC120.PDB" /Gd /TC E:\GAME_PROJECTS\VS 2013\LIBRARIES\CMAKE\GLFW-3.2\DEPS\GLAD.C
