^F:\MY GAMES\R+D\3D_DISTANCE_COLLISION\CUSTOMMATH.CPP
/c /Zi /nologo /W3 /WX- /sdl /O2 /Oi /Oy- /GL /D _MBCS /Gm- /EHsc /MD /GS /Gy /fp:precise /Zc:wchar_t /Zc:forScope /Fo"RELEASE\\" /Fd"RELEASE\VC120.PDB" /Gd /TP /analyze- F:\MY GAMES\R+D\3D_DISTANCE_COLLISION\CUSTOMMATH.CPP
^F:\MY GAMES\R+D\3D_DISTANCE_COLLISION\MAIN.CPP
/c /Zi /nologo /W3 /WX- /sdl /O2 /Oi /Oy- /GL /D _MBCS /Gm- /EHsc /MD /GS /Gy /fp:precise /Zc:wchar_t /Zc:forScope /Fo"RELEASE\\" /Fd"RELEASE\VC120.PDB" /Gd /TP /analyze- F:\MY GAMES\R+D\3D_DISTANCE_COLLISION\MAIN.CPP
